25.1344151,55.2452567
-33.9497381,151.0387154
48.1202899,16.2899374
48.2512544,16.4676966
48.1818496,16.4069459
48.2512544,16.4676966
47.0304522,15.4015135
47.8076734,13.065898
48.1244865,16.3221424
47.3975432,9.731437399999999
